﻿Baze podataka,2,Zimski,8,Mladen,Veinovic
Android programiranje,3,Letnji,6,Miodrag,Zivkovic
Osnovne programiranja,1,Zimski,8,Vladislav,Miskovic
Napredno softversko inzenjerstvo,4,Letnji,8,Angelina,Njegus
